%YAML 1.1
%TAG !u! tag:unity3d.com,2011:
--- !u!114 &11400000
MonoBehaviour:
  m_ObjectHideFlags: 0
  m_CorrespondingSourceObject: {fileID: 0}
  m_PrefabInstance: {fileID: 0}
  m_PrefabAsset: {fileID: 0}
  m_GameObject: {fileID: 0}
  m_Enabled: 1
  m_EditorHideFlags: 0
  m_Script: {fileID: 11500000, guid: ed153d73bbad8fb49b3a07ed4b120399, type: 3}
  m_Name: DailyTask46_46
  m_EditorClassIdentifier: 
  dailyTaskLevelRequirement: 46
  dailyTaskKey: DailyTask46
  taskDescription: Greet people you normally encounter on a regular basis throughout
    the week, and brainstorm three ways you might socialize with them further.
  taskHeaderName: Make some plans
