%YAML 1.1
%TAG !u! tag:unity3d.com,2011:
--- !u!114 &11400000
MonoBehaviour:
  m_ObjectHideFlags: 0
  m_CorrespondingSourceObject: {fileID: 0}
  m_PrefabInstance: {fileID: 0}
  m_PrefabAsset: {fileID: 0}
  m_GameObject: {fileID: 0}
  m_Enabled: 1
  m_EditorHideFlags: 0
  m_Script: {fileID: 11500000, guid: ed153d73bbad8fb49b3a07ed4b120399, type: 3}
  m_Name: DailyTask21_21
  m_EditorClassIdentifier: 
  dailyTaskLevelRequirement: 21
  dailyTaskKey: DailyTask21
  taskDescription: Go inside the bank rather than using the drive through or automatic
    teller.
  taskHeaderName: Go to the bank
