%YAML 1.1
%TAG !u! tag:unity3d.com,2011:
--- !u!114 &11400000
MonoBehaviour:
  m_ObjectHideFlags: 0
  m_CorrespondingSourceObject: {fileID: 0}
  m_PrefabInstance: {fileID: 0}
  m_PrefabAsset: {fileID: 0}
  m_GameObject: {fileID: 0}
  m_Enabled: 1
  m_EditorHideFlags: 0
  m_Script: {fileID: 11500000, guid: f4cde03064783ff4f9ac2f04a784ab0e, type: 3}
  m_Name: Level_4_Requirements
  m_EditorClassIdentifier: 
  levelNumber: 4
  requireGuru: 1
  requireDailyTasks: 1
  requireBattle: 0
  hasCompletedGuru: 0
  hasCompletedDailyTasks: 0
  hasCompletedBattle: 0
  allDailyTasksForLevel:
  - {fileID: 11400000, guid: 0fe37a2cf8c7958429df3b050b2bc238, type: 2}
  - {fileID: 11400000, guid: fbd59c6031c5ba94cbb3452bb6cd4fb6, type: 2}
  - {fileID: 11400000, guid: 59d1b1377e6d5704da8e02daa9b94d92, type: 2}
  - {fileID: 11400000, guid: 424bf349b5e13584ca1afca02a347107, type: 2}
  - {fileID: 11400000, guid: 621395a1775ebc94ca597b754bebe768, type: 2}
