%YAML 1.1
%TAG !u! tag:unity3d.com,2011:
--- !u!114 &11400000
MonoBehaviour:
  m_ObjectHideFlags: 0
  m_CorrespondingSourceObject: {fileID: 0}
  m_PrefabInstance: {fileID: 0}
  m_PrefabAsset: {fileID: 0}
  m_GameObject: {fileID: 0}
  m_Enabled: 1
  m_EditorHideFlags: 0
  m_Script: {fileID: 11500000, guid: f4cde03064783ff4f9ac2f04a784ab0e, type: 3}
  m_Name: Level_17_Requirements
  m_EditorClassIdentifier: 
  levelNumber: 17
  requireGuru: 1
  requireDailyTasks: 1
  requireBattle: 1
  hasCompletedGuru: 0
  hasCompletedDailyTasks: 0
  hasCompletedBattle: 0
  allDailyTasksForLevel:
  - {fileID: 11400000, guid: f22270a40b7064b42a871f4d07265243, type: 2}
  - {fileID: 11400000, guid: 28257f83643ee4e44bf57b6279199c87, type: 2}
  - {fileID: 11400000, guid: 49e651dcf3c17a64b8d442fb16b89787, type: 2}
  - {fileID: 11400000, guid: 2706ae25cda84b74dbc2c01f46afa6c4, type: 2}
  - {fileID: 11400000, guid: bf7c18c606030054391ecb4f8ec5bfb0, type: 2}
