%YAML 1.1
%TAG !u! tag:unity3d.com,2011:
--- !u!114 &11400000
MonoBehaviour:
  m_ObjectHideFlags: 0
  m_CorrespondingSourceObject: {fileID: 0}
  m_PrefabInstance: {fileID: 0}
  m_PrefabAsset: {fileID: 0}
  m_GameObject: {fileID: 0}
  m_Enabled: 1
  m_EditorHideFlags: 0
  m_Script: {fileID: 11500000, guid: f4cde03064783ff4f9ac2f04a784ab0e, type: 3}
  m_Name: Level_19_Requirements
  m_EditorClassIdentifier: 
  levelNumber: 19
  requireGuru: 1
  requireDailyTasks: 1
  requireBattle: 1
  hasCompletedGuru: 0
  hasCompletedDailyTasks: 0
  hasCompletedBattle: 0
  allDailyTasksForLevel:
  - {fileID: 11400000, guid: 28257f83643ee4e44bf57b6279199c87, type: 2}
  - {fileID: 11400000, guid: 2706ae25cda84b74dbc2c01f46afa6c4, type: 2}
  - {fileID: 11400000, guid: 42b1684c827d3124fb13078af828e5f4, type: 2}
  - {fileID: 11400000, guid: 8fc9db81fab830a41892c8cc7f093d9c, type: 2}
  - {fileID: 11400000, guid: ee92e86664fe4e042ad2b98426624863, type: 2}
